,Policy Number,Insured Name,Industry Section,Banding,Division,Sub Division,Portfolio,Sub Portfolio,GWP,Policy Count,Claims,Claim Count,Company Number,id,CompanyName,CompanyNumber,RegAddress.PostTown,RegAddress.County,RegAddress.Country,RegAddress.PostCode,CompanyCategory,CompanyStatus,CountryOfOrigin,DissolutionDate,IncorporationDate,Accounts.AccountCategory,Mortgages.NumMortCharges,Mortgages.NumMortOutstanding,Mortgages.NumMortPartSatisfied,Mortgages.NumMortSatisfied,SICCode.SicText_1,SICCode.SicText_2,SICCode.SicText_3,SICCode.SicText_4,filename.yr1,directory_name.yr1,EntityDormant.yr1,UKCompaniesHouseRegisteredNumber.yr1,EntityCurrentLegalOrRegisteredName.yr1,StartDateForPeriodCoveredByReport.yr1,EndDateForPeriodCoveredByReport.yr1,NumberEntityOfficer.yr1,ProfitLoss.yr1,TotalAssetsLessCurrentLiabilities.yr1,ShareholderFunds.yr1,Turnover.yr1,FixedAssets.yr1,:CurrentAssets.yr1,:Creditors.yr1,:NetCurrentAssets.yr1,CashBankOnHand.yr1,ProvisionsForLiabilities.yr1,d:Equity.yr1,TotalBorrowings.yr1,FinancialAssets.yr1,AverageNumberEmployeesDuringPeriod.yr1,filename.yr0,directory_name.yr0,EntityDormant.yr0,UKCompaniesHouseRegisteredNumber.yr0,EntityCurrentLegalOrRegisteredName.yr0,StartDateForPeriodCoveredByReport.yr0,EndDateForPeriodCoveredByReport.yr0,NumberEntityOfficer.yr0,ProfitLoss.yr0,TotalAssetsLessCurrentLiabilities.yr0,ShareholderFunds.yr0,Turnover.yr0,FixedAssets.yr0,:CurrentAssets.yr0,:Creditors.yr0,:NetCurrentAssets.yr0,CashBankOnHand.yr0,ProvisionsForLiabilities.yr0,d:Equity.yr0,TotalBorrowings.yr0,FinancialAssets.yr0,AverageNumberEmployeesDuringPeriod.yr0
0,Y102844FLT0117A,SHIREMOOR PRESS LTD,ABI1,1,UK,MOTOR,COMMERCIAL CONVENTIONAL,BODILY INJURY,8392.04,1,21092.83,4,03729363,3250462,SAPMORE HOLDINGS LIMITED,03729363,NEWCASTLE UPON TYNE,,,NE3 4BQ,Private Limited Company,Active,United Kingdom,,1999-03-09,DORMANT,0,0,0,0,74990 - Non-trading company,,,,Prod224_0037_03729363_20160331.html,Accounts_Monthly_Data-December2016.zip,True,03729363,SAPMORE HOLDINGS LIMITED,2015-04-01 00:00:00,2016-03-31 00:00:00,,-44241.0,505759.0,505759.0,,500000,,,5759.0,,,,,,,Prod224_0046_03729363_20170331.html,Accounts_Monthly_Data-September2017.zip,True,03729363,SAPMORE HOLDINGS LIMITED,2016-04-01 00:00:00,2017-03-31 00:00:00,2.0,,,,,500000,,,,1259.0,,,,,
0,Y043184QBE0117A,SARGENT & SON,"Agriculture, Forestry & Fishing",1,UK,LIABILITY,EL & PL - NATIONAL,PL,3890.0,1,0.0,0,05403007,3253708,SARGEANT & SON LTD,05403007,HAYES,MIDDLESEX,,UB4 8BY,Private Limited Company,Active,United Kingdom,,2005-03-24,TOTAL EXEMPTION FULL,1,1,0,0,"43220 - Plumbing, heat and air-conditioning installation",,,,Prod224_0025_05403007_20150331.html,Accounts_Monthly_Data-December2015.zip,False,05403007,SARGEANT & SON LTD,2014-04-01 00:00:00,2015-03-31 00:00:00,1.0,517301.0,638937,518301.0,,,494435.0,120636,378031,,,,,,,Prod224_0049_05403007_20170331.html,Accounts_Monthly_Data-December2017.zip,False,05403007,Sargeant & Son Ltd,2016-04-01 00:00:00,2017-03-31 00:00:00,,,676938,,,241859.0,561733.0,126654,435079,473974.0,,,,,5.0
